Openwash Capstone Project
…
processed_data <- processed_data %>%
  select(service_type, coverage, population, residence_type, service_level, Region)

# viewing the dataset to confirm
print(processed_data)

# A tibble: 39 × 6
   service_type   coverage population residence_type service_level   Region  
   <chr>             <dbl>      <dbl> <chr>          <chr>           <chr>   
 1 Hygiene           45.5    15658992 total          Basic service   Region 1
 2 Hygiene           31.3     4327143 rural          Basic service   Region 1
 3 Hygiene           55.0    11331848 urban          Basic service   Region 1
 4 Sanitation        12.8     4412014 total          Basic service   Region 2
 5 Sanitation         2.99     413732 rural          Basic service   Region 2
 6 Sanitation        19.4     3998282 urban          Basic service   Region 2
 7 Drinking water    47.0    16174213 total          Basic service   Region 3
 8 Drinking water    59.1     8170136 rural          Basic service   Region 3
 9 Drinking water    38.8     8004077 urban          Basic service   Region 3
10 Hygiene           44.9    15442597 total          Limited service Region 4
# ℹ 29 more rows
…
